[
  {
    "id": 1,
    "firstName": "wafa",
    "lastName": "Soda",
    "society": "Assurence Maladie",
    "VATNumber": "111003546778234",
    "address": "15 rue victor hugo",
    "postalCode": "92400",
    "town": "paris",
    "state": "france",
    "country": "France",
    "telephone": "0636137048"
  },
  {
    "id": 2,
    "firstName": "marwen",
    "lastName": "khiary",
    "society": "societé generale",
    "VATNumber": "111003546778234",
    "address": "15 rue victor hugo",
    "postalCode": "92400",
    "town": "paris",
    "state": "france",
    "country": "France",
    "telephone": "0634104034"
  },
  {
    "id": 3,
    "firstName": "Catherine",
    "lastName": "Khiary",
    "society": "Hopitale fouche",
    "VATNumber": "111003546778234",
    "address": "15 rue victor hugo",
    "postalCode": "92400",
    "town": "paris",
    "state": "france",
    "country": "France",
    "telephone": "0636137048"
  }
]
