[
  {
    "id": 1,
    "name": "MAX-BLOUSE",
    "picture": "/img_20.png",
    "pictureHover": "/img_19.png",
    "pictures": [
      "img_15.png",
      "img_16.png",
      "img_17.png",
      "img_20.png",
      "img_19.png"
    ],
    "color": "Bleu Foncé",
    "matter": "100% polyester",
    "reference": "NA521E0LS-K11",
    "price": "123",
    "availableSizes": [
      "X",
      "L",
      "XL",
      "XXL"
    ],
    "description": [
      "Top uni",
      "Col rend",
      "Élastique à la taille",
      "Longueur : 60 cm en taille S ",
      " Fabriqué en Italie",
      "100% Polyester",
      "Ne pas utiliser de Javel",
      "Ne pas passer au sèche-linge"
    ],
    "unit": "€",
    "createdAt": "30/09/2021"
  },
  {
    "id": 2,
    "name": "LONGUE CHEMISE OVERSIZE BLEUE SATINÉ",
    "picture": "/img_12.png",
    "pictureHover": "/img_13.png",
    "pictures": [
      "img_12.png",
      "img_13.png",
      "img_14.png",
      "img_21.png"
    ],
    "reference": " D 5/1 21012 bleue 2265",
    "color": "Bleue satiné",
    "matter": "100% polyester",
    "price": "143",
    "availableSizes": [
      "X",
      "L",
      "M",
      "XS"
    ],
    "description": [
      "Taille unique du 36 au 44",
      "Le modèle porte la taille s",
      " 100% Polyester",
      "Fabriqué en Italie",
      "Satiné",
      "Tombant",
      "Ample oversize",
      "Manches longues",
      "Boutonnés",
      "Coloris Bleu turquoise",
      "Col chemise"
    ],
    "unit": "€",
    "createdAt": "10/12/2021"
  },
  {
    "id": 3,
    "name": "CHEMISE RAYÉ AVEC DEUX MOTIF NOIR ET BLANC",
    "picture": "/img_22.png",
    "pictureHover": "/img_23.png",
    "pictures": [
      "img_22.png",
      "img_23.png",
      "img_24.png",
      "img_25.png"
    ],
    "reference": "  D 6/1 21269 noir/blanc",
    "color": "Noir/Blanc",
    "matter": "95% Polyester 5% Elasthane ",
    "price": "235",
    "availableSizes": [
      "XS",
      "L",
      "XL",
      "XXL",
      "M"
    ],
    "description": [
      "BLOUSE en polyester à longues rayures.",
      "Collier châle.",
      "Ouvrir sur le devant avec boutton.",
      "Les épaules sont descendues.",
      "Manches.",
      "Coutures externes.",
      "Franges en bas.",
      "Composition du tissu: 10% coton, 90% polyester.",
      "Fabriqué en Italy."
    ],
    "unit": "€",
    "createdAt": "10/03/2022"
  },
  {
    "id": 4,
    "name": "BLOUSE NOIRE À MOTIF BLANC À COL BARDOT ET FRONCÉ",
    "picture": "/img_26.png",
    "pictureHover": "/img_27.png",
    "pictures": [
      "img_26.png",
      "img_27.png",
      "img_28.png",
      "img_29.png",
      "img_30.png"
    ],
    "reference": " 21 - 21366 Noir/Blanc Q31118",
    "color": "Noir/Blanc",
    "matter": "95% Polyester 5% Elasthane ",
    "price": "123",
    "availableSizes": [
      "X",
      "L"
    ],
    "description": [
      "Blouse noire à motif blanc",
      "col bardot et froncé aux bras et à la taille",
      "Taille unique du 36 au 42 ",
      "95% Polyester 5% Elasthane ",
      " Fabriqué en Italie",
      "Blouse",
      " Motif inspi",
      "Col bardot ",
      " Froncé ",
      "Coloris blanc "
    ],
    "unit": "€",
    "createdAt": "30/01/2022"
  },
  {
    "id": 5,
    "name": "PULL ROSE CÔTELÉ BI MATIÈRE EN HAUT ET MANCHES",
    "picture": "/img_31.png",
    "pictureHover": "/img_32.png",
    "pictures": [
      "img_31.png",
      "img_32.png",
      "img_33.png",
      "img_34.png",
      "img_35.png"
    ],
    "reference": "G 2/1 - 20455 rose 02345",
    "color": "Rose",
    "matter": "68% Viscose 32% Polyester",
    "price": "130",
    "availableSizes": [
      "S",
      "L",
      "M",
      "XL"
    ],
    "description": [
      "Pull rose côtelé bi matière en haut ",
      " manches Talle ",
      "Taille unique du 36 au 42 ",
      "68% Viscose 32% Polyester ",
      " Fabriqué en Italie"
    ],
    "unit": "€",
    "createdAt": "30/02/2022"
  },
  {
    "id": 6,
    "name": " TEESHIRT NOIR À MOTIF ANANAS EN SEQUINS",
    "picture": "/img_36.png",
    "pictureHover": "/img_38.png",
    "pictures": [
      "img_36.png",
      "img_37.png",
      "img_38.png",
      "img_39.png"
    ],
    "reference": "D 2/4 - 19077 18043 ",
    "color": "Noir",
    "matter": "95% coton 5% elasthane ",
    "price": "41",
    "availableSizes": [
      "X",
      "L",
      "XL",
      "XXL",
      "M"
    ],
    "description": [
      "Teeshirt noir à motif ananas en sequins  ",
      " manches Talle ",
      "Taille unique du 36 au 42 ",
      "95% coton 5% elasthane ",
      " Fabriqué en Italie"
    ],
    "unit": "€",
    "createdAt": "10/03/2022"
  },
  {
    "id": 7,
    "name": "SWEAT NOIR AVEC ÉCRITURE NEW YORK EN STRASS ET DENTELLE ",
    "picture": "/img_40.png",
    "pictureHover": "/img_41.png",
    "pictures": [
      "img_40.png",
      "img_41.png",
      "img_42.png",
      "img_43.png",
      "img_44.png"
    ],
    "reference": "A 1/1 18748 noir 2550  ",
    "color": "Noir",
    "matter": "100% Polyester ",
    "price": "341",
    "availableSizes": [
      "S",
      "M",
      "X",
      "L",
      "XL",
      "XXL"
    ],
    "description": [
      "Sweat noir pour femme avec écriture NEW YORK",
      " K en strass et dentelle ",
      "Taille S/M et M/L et x/xl et xl/xxl",
      "100% Polyester  ",
      " Fabriqué en Italie"
    ],
    "unit": "€",
    "createdAt": "15/03/2022"
  },
  {
    "id": 8,
    "name": " ENSEMBLE BLANC AVEC POCHES AU JOGGING ET ÉCRITURE MOTIF DORÉ AU SWEAT",
    "picture": "/img_45.png",
    "pictureHover": "/img_49.png",
    "pictures": [
      "img_45.png",
      "img_46.png",
      "img_47.png",
      "img_48.png",
      "img_49.png"
    ],
    "reference": " 45 - 19342 blanc 10090 ",
    "color": "Blanc/Doré",
    "matter": "95% Coton 5% Elasthane  ",
    "price": "123",
    "availableSizes": [
      "X",
      "L",
      "XL",
      "XXL"
    ],
    "description": [
      "Ensemble blanc avec poches au jogging et écriture motif doré au swea ",
      " Jogging femme humour marque dérivé très chic et fashion ",
      "Taille unique du 36 au 42 ",
      "95% Coton 5% Elasthane",
      " Fabriqué en Italie"
    ],
    "unit": "€",
    "createdAt": "30/01/2022"
  }
]
