[
  {
    "id": 0,
    "username": "wafa",
    "firstName": "wafa",
    "lastName": "soda",
    "birthday": "01/09/1990",
    "email": "soda@gmail.com",
    "password": "123",
    "status": "admin",
    "picture": "/img.png",
    "token": ""
  },
  {
    "id": 1,
    "username": "marwen",
    "firstName": "marwen",
    "lastName": "khiary",
    "birthday": "07/10/1988",
    "email": "khiary@gmail.com",
    "password": "1234",
    "status": "admin",
    "picture": "/img_2.png",
    "token": ""
  },
  {
    "id": 2,
    "username": "catherine",
    "firstName": "catherine",
    "lastName": "khiary",
    "birthday": "24/07/2021",
    "email": "catherine@gmail.com",
    "password": "12345",
    "status": "user",
    "picture": "/img_1.png",
    "token": ""
  }
]
